[
  {
    "id": 101,
    "grup_paket": "Nasi Box",
    "nama_paket": "Nasi Box: Paket A",
    "isi_paket": "Nasi, Olahan ayam/galantin, Olahan sayur oseng, kerupuk, Olahan pelengkap, Air mineral",
    "harga_paket": 15000,
    "image_paket": "box_a.jpg",
    "minimal_pesan": 10
  },
  {
    "id": 102,
    "grup_paket": "Nasi Box",
    "nama_paket": "Nasi Box: Paket B",
    "isi_paket": "Nasi, Olahan ayam/ikan, Olahan sayur, Masakan pedas, Kerupuk, Buah, Air mineral",
    "harga_paket": 20000,
    "image_paket": "box_b.jpg",
    "minimal_pesan": 10
  },
  {
    "id": 103,
    "grup_paket": "Nasi Box",
    "nama_paket": "Nasi Box: Paket C",
    "isi_paket": "Nasi, Olahan ayam/gurami/daging, Olahan sayur, Olahan pelengkap, Kerupuk, Buah, Air mineral",
    "harga_paket": 25000,
    "image_paket": "box_c.jpg",
    "minimal_pesan": 10
  },
  {
    "id": 104,
    "grup_paket": "Nasi Box",
    "nama_paket": "Nasi Box: Paket D",
    "isi_paket": "Nasi, Olahan ayam/gurami/seafood/daging, Olahan sayur, Masakan pelengkap, Kerupuk, Buah/puding, Air mineral",
    "harga_paket": 30000,
    "image_paket": "box_d.jpg",
    "minimal_pesan": 10
  },
  {
    "id": 201,
    "grup_paket": "Buffet",
    "nama_paket": "Buffet: Buffet A",
    "isi_paket": "Nasi, Sup rolled sosis, Oseng janggel telur puyuh cabe ijo, Olahan ayam/ikan tongkol/patin/salem, Mie goreng/ bihun goreng/ soon cabe iso, Tempe/tahu, Kerupuk jawa, Buah, Teh, Air putih, Softdrink, Infused Water",
    "harga_paket": 30000,
    "image_paket": "bufet_a.jpg",
    "minimal_pesan": 10
  },
  {
    "id": 202,
    "grup_paket": "Buffet",
    "nama_paket": "Buffet: Buffet B",
    "isi_paket": "Nasi, Sup rolade sosis/soup manten, Sambel goring krecek ati ampela/janggel sanding lamur cabe ijo, Gurami fillet/masakan ayam, Mie goring/bihun goring/soon cabe ijo + Ayan, Krupuk/rambak, Buah potong, Teh, Air putih, Soft drink, Pudding es krim, Infused Water",
    "harga_paket": 35000,
    "image_paket": "bufet_b.jpg",
    "minimal_pesan": 10
  },
  {
    "id": 203,
    "grup_paket": "Buffet",
    "nama_paket": "Buffet: Buffet C",
    "isi_paket": "Nasi, Sup rolade sosis/soup manten, Sambel goring kreni/janggel daging sapi cabe ijo, Gurami fillet/olahan ayam, Galanin bistik/lada hitam, Paklay/Mie oriental/soon jamur cabe ijo + ayam, Kerupuk/rambak, Buah potong, Teh, Air putih, Soft drink, Infused Water, Pudding es krim",
    "harga_paket": 40000,
    "image_paket": "bufet_c.jpg",
    "minimal_pesan": 10
  },
  {
    "id": 204,
    "grup_paket": "Buffet",
    "nama_paket": "Buffet: Buffet D",
    "isi_paket": "Nasi, Sup rolade sosis/soup manten, Sambel goring krecek kreni/janggel daging sapi cabe ijo, Gurami fillet asam manis, Masakan ayam, Paklay/Mie oriental/soon jamur cabe ijo + ayam, Kerupuk/rambak, Teh, Air putih, Soft drin, Pudding es krim, Infused Water",
    "harga_paket": 45000,
    "image_paket": "bufet_d.jpg",
    "minimal_pesan": 10
  },
  {
    "id": 205,
    "grup_paket": "Buffet",
    "nama_paket": "Buffet: Buffet E",
    "isi_paket": "Nasi, Nasi goreng, Sup rolade sosis/soup manten/soup crem ayam jagung/soup timlo/soup asparagus, Daging sapi lada hitam/bistik daging, Olahan ikan/udang/gurami, Sate ayam/masakan ayam special, Capcay seafood/mie oriental, Salad kombinasi, Kerupuk/rambak, Buah potong, Teh, Air putih, Orange juice / softdrink, Pudding es krim",
    "harga_paket": 60000,
    "image_paket": "bufet_e.jpg",
    "minimal_pesan": 10
  },
  {
    "id": 206,
    "grup_paket": "Buffet",
    "nama_paket": "Buffet: Buffet Tradisioanal",
    "isi_paket": "Nasi liwet komlit, Nasi merah komlit, Nasi pecel komlit, Nasi menu rumahan/ndeso, Nasi rawon komlit, Nasi gudeg komlit, Nasi Langgi komlit, By request",
    "harga_paket": 0,
    "image_paket": "bufet_tradisional.jpg",
    "minimal_pesan": 0
  },
  {
    "id": 301,
    "grup_paket": "COFFEBREAK",
    "nama_paket": "COFFEBREAK: COFFEBREAK A",
    "isi_paket": "Teh, Kopi, Creamer + gula, Air mineral, Snack manis, Kletikan 2 macam",
    "harga_paket": 20000,
    "image_paket": "cofe_a.jpg",
    "minimal_pesan": 10
  },
  {
    "id": 302,
    "grup_paket": "COFFEBREAK",
    "nama_paket": "COFFEBREAK: COFFEBREAK B",
    "isi_paket": "Teh, Kopi, Creamer + gula, Air mineral, Snack manis, Snack gurih, Kletikan, Jus buah segar, Air mineral, Salad kombinasi",
    "harga_paket": 25000,
    "image_paket": "cofe_b.jpg",
    "minimal_pesan": 10
  },
  {
    "id": 401,
    "grup_paket": "SEMINAR/DIKLAT/MEETING",
    "nama_paket": "SEMINAR/DIKLAT/MEETING: Paket A",
    "isi_paket": "Paket COFFEBREAK A, Buffet D",
    "harga_paket": 60000,
    "image_paket": "seminar_a.jpg",
    "minimal_pesan": 10
  },
  {
    "id": 402,
    "grup_paket": "SEMINAR/DIKLAT/MEETING",
    "nama_paket": "SEMINAR/DIKLAT/MEETING: Paket B",
    "isi_paket": "Paket COFFEBREAK A 2x, Buffet D",
    "harga_paket": 70000,
    "image_paket": "seminar_b.jpg",
    "minimal_pesan": 10
  },
  {
    "id": 403,
    "grup_paket": "SEMINAR/DIKLAT/MEETING",
    "nama_paket": "SEMINAR/DIKLAT/MEETING: Paket C",
    "isi_paket": "Paket COFFEBREAK A 2x, Buffet C, Buffet D",
    "harga_paket": 80000,
    "image_paket": "seminar_c.jpg",
    "minimal_pesan": 10
  },
  {
    "id": 501,
    "grup_paket": "KENDURI",
    "nama_paket": "KENDURI: KENDURI A",
    "isi_paket": "Nasi (1/8), Ayam goreng, Telur rebus, Kentang balado, Mie goreng, Gudangan, Kerupuk, Pisang, Snack 2 macam",
    "harga_paket": 30000,
    "image_paket": "kenduri_a.jpg",
    "minimal_pesan": 10
  },
  {
    "id": 502,
    "grup_paket": "KENDURI",
    "nama_paket": "KENDURI: KENDURI B",
    "isi_paket": "Nasi (sedang), Olahan ayam, Olahan telur, Gudangan, Sambel goring kentang, Mie gorang, Kerupuk, Pisang + tukon pasar",
    "harga_paket": 35000,
    "image_paket": "kenduri_b.jpg",
    "minimal_pesan": 10
  },
  {
    "id": 503,
    "grup_paket": "KENDURI",
    "nama_paket": "KENDURI: KENDURI C",
    "isi_paket": "Nasi (besar), Ayam goreng, Gudangan, Telur rebus, Sambel goreng kentang, Mie goreng, Kerupuk, Pisang, Ketan-kolak-apem / rujak-serabi-kupat",
    "harga_paket": 40000,
    "image_paket": "kenduri_c.jpg",
    "minimal_pesan": 10
  },
  {
    "id": 504,
    "grup_paket": "KENDURI",
    "nama_paket": "KENDURI: KENDURI D",
    "isi_paket": "Nasi (besar), Nasi gurih + ingkung, Ayam goreng, Telur rebus, Gudangan, Sambel goreng, kentang krecek, Mie goreng, Kerupuk, Tukon pasar (pisang + kacang), Ketan+kolak+apem / rujak + serabi + ketupat",
    "harga_paket": 45000,
    "image_paket": "kenduri_d.jpg",
    "minimal_pesan": 10
  },
  {
    "id": 505,
    "grup_paket": "KENDURI",
    "nama_paket": "KENDURI: KENDURI E",
    "isi_paket": "Nasi (besar), Ayam goreng ¼, Sambel goreng kentang, Mie goreng, Telur rebus 2, Kerupuk 2",
    "harga_paket": 50000,
    "image_paket": "kenduri_e.jpg",
    "minimal_pesan": 10
  },
  {
    "id": 506,
    "grup_paket": "KENDURI",
    "nama_paket": "KENDURI: KENDURI F",
    "isi_paket": "Nasi (besar), Nasi gurih + ingkung, Ayam goreng, Telur rebus, Tempe goreng, Sambel goreng kentang krecek, Gudangan / Brongkos, Mie goreng, Kerupuk-peyek komlit-tento, Ketan-kolak, apem/rujak-serabi-kupat, Snack 2 macam",
    "harga_paket": 55000,
    "image_paket": "kenduri_f.jpg",
    "minimal_pesan": 10
  },
  {
    "id": 507,
    "grup_paket": "KENDURI",
    "nama_paket": "KENDURI: KENDURI G",
    "isi_paket": "Nasi (besar), Gule kambing Tongseng kambing, Ayam goreng, Gudangan, Telur rebus, Mie goreng, Kerupuk, Pisang",
    "harga_paket": 55000,
    "image_paket": "kenduri_g.jpg",
    "minimal_pesan": 10
  },
  {
    "id": 601,
    "grup_paket": "ATER-ATER",
    "nama_paket": "ATER-ATER: PAKET A",
    "isi_paket": "Nasi, Ayam ½, Sambel, Lalap, Kerupuk 2",
    "harga_paket": 50000,
    "image_paket": "ater_a.jpg",
    "minimal_pesan": 10
  },
  {
    "id": 602,
    "grup_paket": "ATER-ATER",
    "nama_paket": "ATER-ATER: PAKET B",
    "isi_paket": "Nasi, Ayam ½, Sambel, Lalap, Kerupuk 2, Telur rebus/pindang 2",
    "harga_paket": 60000,
    "image_paket": "ater_b.jpg",
    "minimal_pesan": 10
  },
  {
    "id": 603,
    "grup_paket": "ATER-ATER",
    "nama_paket": "ATER-ATER: PAKET C",
    "isi_paket": "Nasi, Ayam ½, Soon jamur Lombok ijo, Kerupuk 2, Telur rebus/pindang 2, Sambel goreng kentang krecek/oseng janggel rempelo ati",
    "harga_paket": 65000,
    "image_paket": "ater_c.jpg",
    "minimal_pesan": 10
  },
  {
    "id": 604,
    "grup_paket": "ATER-ATER",
    "nama_paket": "ATER-ATER: PAKET D",
    "isi_paket": "Nasi, Ayam ½, Sate kambing 3 tusuk, Tongseng, Gudangan + telur rebus, Sambel goreng kentang krecek, Kerupuk 2",
    "harga_paket": 85000,
    "image_paket": "ater_d.jpg",
    "minimal_pesan": 10
  },
  {
    "id": 605,
    "grup_paket": "ATER-ATER",
    "nama_paket": "ATER-ATER: PAKET E",
    "isi_paket": "Ayam 1 ekor, Sambel, Lalap",
    "harga_paket": 100000,
    "image_paket": "ater_e.jpg",
    "minimal_pesan": 10
  },
  {
    "id": 701,
    "grup_paket": "TUMPENG",
    "nama_paket": "TUMPENG: Nasi Kuning Bento",
    "isi_paket": "-",
    "harga_paket": 30000,
    "image_paket": "tumpeng_bento.jpg",
    "minimal_pesan": 1
  },
  {
    "id": 702,
    "grup_paket": "TUMPENG",
    "nama_paket": "TUMPENG: TUMINI(Tumpeng Mini)",
    "isi_paket": "-",
    "harga_paket": 40000,
    "image_paket": "tumpeng_mini.jpg",
    "minimal_pesan": 1
  },
  {
    "id": 703,
    "grup_paket": "TUMPENG",
    "nama_paket": "TUMPENG: TUMANG(Tumpeng Sedang)",
    "isi_paket": "-",
    "harga_paket": 400000,
    "image_paket": "tumpeng_sedang.jpg",
    "minimal_pesan": 1
  },
  {
    "id": 704,
    "grup_paket": "TUMPENG",
    "nama_paket": "TUMPENG: TUMAR(Tumpeng Besar)",
    "isi_paket": "-",
    "harga_paket": 600000,
    "image_paket": "tumpeng_besar.jpg",
    "minimal_pesan": 1
  },
  {
    "id": 705,
    "grup_paket": "TUMPENG",
    "nama_paket": "TUMPENG: TUMEWA(Tumpeng Istimewa)",
    "isi_paket": "-",
    "harga_paket": 850000,
    "image_paket": "tumpeng_istimewa.jpg",
    "minimal_pesan": 1
  },
  {
    "id": 801,
    "grup_paket": "KAMBING GULING",
    "nama_paket": "KAMBING GULING: KOMLIT",
    "isi_paket": "Nasi/lontong, sambel, kecap, kerupuk,kambing guling 1 ekor",
    "harga_paket": 2700000,
    "image_paket": "kambing_guling.jpg",
    "minimal_pesan": 1
  }
]
